[
    {
        "name": "Green salad with tomatoe",
        "prize": "4$",
        "id": 1,
        "ingredients": [
            "Iceberg lettuce",
            "Tomatoes"
        ],
        "imageUrl": "/Bilder/GreenSaladWithTomato.jpg",
        "dressing": "Italian Dressing"
        
    },
    {
        "name": "Tomato salad with mozzarella",
        "prize": "5$",
        "id": 2,
        "ingredients": [
            "Tomato",
            "Mozzarella"
        ],
        "imageUrl": "/Bilder/tomo.jpeg",
        "dressing": "Italian Dressing"
    },
    {
        "name": "Field salad with egg",
        "prize": "4$",
        "id": 3,
        "ingredients": [
            "Field salad",
            "Egg"
        ],
        "imageUrl": "/Bilder/FieldSaladWithEgg.jpg",
        "dressing": "Italian Dressing"
    },
    {
        "name": "Rocket with parmesan",
        "prize": "5$",
        "id": 4,
        "ingredients": [
            "Rocket",
            "Parmesan"
        ],
        "imageUrl": "/Bilder/rocket-salad-pear-parmesan-1.jpg",
        "dressing": "Italian Dressing"
    }
]