[
    {
        "name": "Coke",
        "prize": "2$",
        "id": 1,
        "imageUrl": "/Bilder/cola.jpg",
        "volume": "50cl"
    },
    {
        "name": "Fanta",
        "prize": "2$",
        "id": 2,
        "imageUrl": "/Bilder/fantaimg.jpg",
        "volume": "50cl"
    },
    {
        "name": "Pepsi",
        "prize": "2$",
        "id": 3,
        "imageUrl": "/Bilder/pepsi.jpg",
        "volume": "50cl"
    },
    {
        "name": "Red bull",
        "prize": "3$",
        "id": 4,
        "imageUrl": "/Bilder/redbull.jpg",
        "volume": "50cl"
    }
]